id,name,model_id:id,group_id:id,perm_read,perm_write,perm_create,perm_unlink
access_employee_shift_employee,access_employee_shift,model_employee_shift,base.group_user,1,0,0,0
access_employee_shift_manager,access_employee_shift,model_employee_shift,hr.group_hr_manager,1,1,1,1



